<?xml version="1.0" standalone="no"?>
<!DOCTYPE svg PUBLIC "-//W3C//DTD SVG 1.1//EN" "http://www.w3.org/Graphics/SVG/1.1/DTD/svg11.dtd" >
<svg xmlns="http://www.w3.org/2000/svg">
<metadata></metadata>
<defs>
<font id="open_sansCnLtIt" horiz-adv-x="737" >
<font-face units-per-em="2048" ascent="1638" descent="-410" />
<missing-glyph horiz-adv-x="346" />
<glyph horiz-adv-x="2048" />
<glyph horiz-adv-x="2048" />
<glyph unicode="&#xd;" horiz-adv-x="940" />
<glyph unicode=" "  horiz-adv-x="346" />
<glyph unicode="&#x09;" horiz-adv-x="346" />
<glyph unicode="&#xa0;" horiz-adv-x="346" />
<glyph unicode="!" horiz-adv-x="477" d="M266 367h-61l203 1095h122zM96 53q0 61 28 102.5t75 41.5q27 0 42 -21t15 -55q0 -61 -27.5 -99t-70.5 -38q-25 0 -43.5 17.5t-18.5 51.5z" />
<glyph unicode="&#x22;" horiz-adv-x="616" d="M412 1462l-138 -528h-61l82 528h117zM680 1462l-139 -528h-62l84 528h117z" />
<glyph unicode="#" horiz-adv-x="782" d="M53 467l19 90h151l127 399h-151l18 86h162l129 420h82l-131 -420h203l133 420h75l-129 -420h148l-19 -86h-157l-127 -399h157l-18 -90h-166l-147 -467h-82l149 467h-203l-145 -467h-80l146 467h-144zM305 557h201l129 399h-205z" />
<glyph unicode="$" d="M223 -119l51 242q-152 5 -221 53v103q29 -22 89.5 -42t150.5 -22l113 528q-85 65 -116 102.5t-49 83.5t-18 105q0 143 83.5 231t232.5 105l41 186h82l-39 -182q119 -3 211 -57l-48 -90q-99 54 -184 57l-104 -489q81 -66 113.5 -111.5t51.5 -102t19 -130.5 q0 -137 -84 -223.5t-242 -102.5l-51 -244h-82zM588 449q0 85 -32.5 141.5t-80.5 97.5l-98 -469q102 14 156.5 73t54.5 157zM319 1040q0 -51 25 -96t84 -94l92 428q-201 -27 -201 -238z" />
<glyph unicode="%" horiz-adv-x="1087" d="M1014 1462l-735 -1462h-89l740 1462h84zM924 819q-48 0 -97 -96t-87 -266t-38 -277q0 -117 62 -117q53 0 102.5 98t84 260.5t34.5 272.5q0 125 -61 125zM1067 696q0 -166 -46.5 -341.5t-118 -275t-152.5 -99.5q-63 0 -95 54t-32 148q0 158 45.5 335.5t117 278.5 t152.5 101q63 0 96 -55t33 -146zM453 1405q-48 0 -97 -96t-87 -266t-38 -277q0 -117 62 -117q53 0 102.5 98t84 260.5t34.5 272.5q0 125 -61 125zM596 1282q0 -167 -47 -343.5t-118.5 -275t-151.5 -98.5q-61 0 -94 53t-33 150q0 156 45 332.5t116.5 279.5t153.5 103 q61 0 95 -53.5t34 -147.5z" />
<glyph unicode="&#x26;" horiz-adv-x="750" d="M582 0l-47 166q-77 -108 -138 -147t-135 -39q-104 0 -162.5 69t-58.5 187q0 165 71.5 299t237.5 260q-41 142 -41 268q0 197 65 308.5t179 111.5q62 0 100.5 -46t38.5 -134q0 -144 -63 -284.5t-178 -248.5l118 -420q68 125 113 295h84q-20 -95 -73.5 -215.5t-94.5 -177.5 l82 -252h-98zM373 717q-238 -190 -238 -463q0 -182 133 -182q60 0 111.5 37t128.5 151zM428 852q86 80 132 194.5t46 239.5q0 107 -69 107q-65 0 -103.5 -84t-38.5 -228q0 -123 33 -229z" />
<glyph unicode="'" horiz-adv-x="350" d="M412 1462l-138 -528h-61l82 528h117z" />
<glyph unicode="(" horiz-adv-x="508" d="M102 219q0 336 130.5 657t373.5 586h76q-235 -287 -355 -601.5t-120 -641.5q0 -146 24 -291.5t70 -251.5h-76q-55 97 -89 247t-34 296z" />
<glyph unicode=")" horiz-adv-x="508" d="M498 920q0 -333 -128.5 -653t-375.5 -591h-76q235 287 355 601.5t120 642.5q0 147 -24.5 293.5t-69.5 248.5h76q55 -98 89 -247t34 -295z" />
<glyph unicode="*" horiz-adv-x="672" d="M578 1546l-58 -231l223 24v-104l-215 22l117 -233l-96 -31l-70 238l-141 -211l-82 55l170 195l-205 37l29 98l211 -82l4 240z" />
<glyph unicode="+" d="M485 782h279v-73h-279v-336h-77v336h-277v73h277v338h77v-338z" />
<glyph unicode="," horiz-adv-x="379" d="M289 182q-102 -214 -244 -446h-65q41 88 96.5 224t89.5 245h115z" />
<glyph unicode="-" horiz-adv-x="465" d="M94 502l23 102h368l-22 -102h-369z" />
<glyph unicode="." horiz-adv-x="379" d="M98 53q0 61 28 102.5t75 41.5q27 0 42 -21t15 -55q0 -61 -27.5 -99t-70.5 -38q-25 0 -43.5 17.5t-18.5 51.5z" />
<glyph unicode="/" horiz-adv-x="641" d="M838 1462l-779 -1462h-92l778 1462h93z" />
<glyph unicode="0" d="M791 1178q0 -197 -42.5 -431t-114 -413.5t-157.5 -266.5t-182 -87q-102 0 -151.5 77t-49.5 232q0 249 74 557t184 472.5t238 164.5q97 0 149 -77.5t52 -227.5zM584 1389q-96 0 -182.5 -163.5t-147.5 -447.5t-61 -489q0 -109 25.5 -162t84.5 -53q96 0 182 157t146.5 442.5 t60.5 504.5q0 100 -24.5 155.5t-83.5 55.5z" />
<glyph unicode="1" d="M383 0h-96l225 1063l33 148l33 135q-27 -29 -55 -56.5t-191 -163.5l-45 68l313 268h92z" />
<glyph unicode="2" d="M575 0h-583l10 78l352 434q161 197 221.5 293t96 192.5t35.5 198.5q0 197 -164 197q-49 0 -95 -17t-116 -67l-45 77q55 39 120 68t148 29q118 0 184 -72.5t66 -204.5q0 -142 -78.5 -306t-284.5 -417l-321 -393h473z" />
<glyph unicode="3" d="M805 1206q0 -172 -83.5 -290.5t-223.5 -151.5l-2 -6q170 -63 170 -295q0 -138 -52 -249.5t-146 -172.5t-214 -61q-153 0 -238 49v108q93 -69 226 -69q100 0 173 48.5t112.5 136t39.5 196.5q0 131 -56.5 196.5t-162.5 65.5h-65l18 92h59q149 0 249 112t100 279 q0 94 -42 147.5t-122 53.5q-66 0 -119 -22.5t-111 -65.5l-45 71q58 46 124.5 75.5t152.5 29.5q119 0 188.5 -76t69.5 -201z" />
<glyph unicode="4" d="M705 332h-140l-71 -332h-95l72 332h-455l17 84l651 1063h125l-225 -1057h139zM489 422l156 720l55 224h-8l-25 -48l-75 -140l-461 -756h358z" />
<glyph unicode="5" d="M596 492q0 141 -53.5 220t-163.5 79q-33 0 -63.5 -5t-96.5 -28l-39 63l178 641h457l-20 -94h-365l-145 -508q56 14 118 14q140 0 215.5 -94.5t75.5 -271.5q0 -151 -56.5 -272t-162 -188.5t-246.5 -67.5q-64 0 -122.5 14t-90.5 33v110q76 -69 217 -69q163 0 263 116.5 t100 307.5z" />
<glyph unicode="6" d="M104 317q0 292 85 577.5t217 437t290 151.5q91 0 144 -23l-27 -94q-46 23 -115 23q-148 0 -263 -165.5t-195 -482.5h6q46 75 115.5 118.5t150.5 43.5q96 0 152.5 -77.5t56.5 -204.5q0 -169 -53.5 -325.5t-140.5 -236t-195 -79.5q-106 0 -167 89.5t-61 247.5zM344 72 q77 0 139 68t103 205.5t41 262.5q0 94 -37.5 148.5t-104.5 54.5q-85 0 -152.5 -60t-101.5 -159t-34 -275q0 -115 39 -180t108 -65z" />
<glyph unicode="7" d="M125 0l637 1368h-518l18 94h615l-11 -82l-639 -1380h-102z" />
<glyph unicode="8" d="M35 287q0 169 82 285t258 204q-71 79 -104 162.5t-33 183.5q0 157 92 259t241 102q113 0 181.5 -73t68.5 -200q0 -142 -80 -257.5t-227 -192.5q94 -94 133 -187t39 -196q0 -174 -97.5 -285.5t-254.5 -111.5q-144 0 -221.5 81.5t-77.5 225.5zM588 373q0 95 -35 174.5 t-123 169.5q-162 -84 -229.5 -183t-67.5 -241q0 -99 54.5 -161t144.5 -62q118 0 187 81.5t69 221.5zM336 1116q0 -92 31 -164t92 -137q130 68 198 166t68 211q0 93 -42.5 147t-117.5 54q-109 0 -169 -73t-60 -204z" />
<glyph unicode="9" d="M784 1163q0 -310 -78.5 -598t-208.5 -436.5t-294 -148.5q-98 0 -154 22v94q49 -22 154 -22q153 0 266.5 165.5t181.5 483.5h-6q-46 -74 -116.5 -119t-147.5 -45q-95 0 -153 85t-58 222q0 166 54.5 316.5t140.5 225.5t196 75q109 0 166 -82t57 -238zM549 1391 q-79 0 -142 -67t-104 -196.5t-41 -250.5q0 -108 37 -167t104 -59q84 0 152.5 62t102.5 172.5t34 265.5q0 113 -36.5 176.5t-106.5 63.5z" />
<glyph unicode=":" horiz-adv-x="379" d="M70 53q0 60 27 102t75 42q27 0 42 -21t15 -55q0 -61 -27.5 -99t-70.5 -38q-25 0 -43 17.5t-18 51.5zM260 944q0 61 28 102t74 41q31 0 44.5 -23.5t13.5 -51.5q0 -60 -27 -99t-71 -39q-25 0 -43.5 18t-18.5 52z" />
<glyph unicode=";" horiz-adv-x="379" d="M276 182q-97 -207 -243 -446h-66q122 263 187 469h114zM274 944q0 61 28 102t75 41q31 0 44 -23.5t13 -51.5q0 -60 -27 -99t-71 -39q-25 0 -43.5 18t-18.5 52z" />
<glyph unicode="&#x3c;" d="M709 307l-633 404v67l633 400v-101l-541 -334l541 -333v-103z" />
<glyph unicode="=" d="M768 547v-82h-633v82h633zM768 977v-82h-633v82h633z" />
<glyph unicode="&#x3e;" d="M170 389l541 334l-541 334v100l633 -399v-68l-633 -403v102z" />
<glyph unicode="?" horiz-adv-x="520" d="M164 367l10 51q40 199 176 383l70 94q87 118 115 193t28 159q0 76 -35.5 111t-89.5 35q-40 0 -73 -11t-91 -53l-38 78q107 76 210 76q104 0 161 -60t57 -166q0 -70 -18.5 -131.5t-51.5 -120t-133 -188.5q-83 -106 -120.5 -170t-64 -133t-38.5 -147h-74zM72 53 q0 60 27 102t75 42q27 0 42 -21t15 -55q0 -61 -27.5 -99t-70.5 -38q-25 0 -43 17.5t-18 51.5z" />
<glyph unicode="@" horiz-adv-x="1110" d="M1137 1024q0 -167 -51 -365.5t-127 -310.5t-160 -112q-57 0 -85 32t-28 86q0 42 10 90q-73 -213 -192 -213q-111 0 -111 179q0 144 53.5 312.5t131.5 253.5t172 85q80 0 141 -29l-118 -471q-25 -97 -25 -149q0 -97 65 -97q51 0 105.5 108t95.5 287t41 302 q0 184 -60.5 280.5t-181.5 96.5q-156 0 -297.5 -145t-229 -402.5t-87.5 -550.5q0 -185 68.5 -288t187.5 -103q58 0 112.5 15.5t89.5 37.5l11 -78q-104 -55 -222 -55q-152 0 -243.5 122.5t-91.5 336.5q0 328 99.5 602.5t267.5 433t356 158.5q140 0 221.5 -118.5t81.5 -330.5z M725 981q-60 0 -116.5 -79t-94 -215t-37.5 -259q0 -109 58 -109q44 0 84 83.5t88 263.5l81 307q-24 8 -63 8z" />
<glyph unicode="A" horiz-adv-x="731" d="M555 0v530h-307l-221 -530h-105l606 1468h123v-1468h-96zM555 629v370l6 355q-15 -52 -52 -152t-226 -573h272z" />
<glyph unicode="B" horiz-adv-x="817" d="M375 1462h225q130 0 208.5 -75t78.5 -199q0 -167 -74.5 -279t-204.5 -137l-2 -6q73 -19 118.5 -89.5t45.5 -166.5q0 -151 -51 -267t-148 -179.5t-233 -63.5h-272zM336 813h147q90 0 158 46t105.5 129.5t37.5 187.5q0 97 -51 143.5t-155 46.5h-123zM317 719l-133 -625h158 q154 0 240 107.5t86 292.5q0 104 -51 164.5t-142 60.5h-158z" />
<glyph unicode="C" horiz-adv-x="727" d="M739 1389q-130 0 -245.5 -129t-188 -355.5t-72.5 -437.5q0 -204 51.5 -299.5t172.5 -95.5q76 0 172 39v-95q-94 -36 -187 -36q-153 0 -230 115.5t-77 353.5q0 256 85.5 504.5t226 390t303.5 141.5q122 0 196 -62l-61 -86q-60 52 -146 52z" />
<glyph unicode="D" horiz-adv-x="895" d="M913 1047q0 -300 -82.5 -544.5t-230 -373.5t-344.5 -129h-190l309 1462h217q154 0 237.5 -105t83.5 -310zM276 94q151 0 270.5 116t191 345t71.5 492q0 319 -231 319h-123l-271 -1272h92z" />
<glyph unicode="E" horiz-adv-x="709" d="M543 0h-477l309 1462h477l-21 -96h-376l-117 -553h354l-20 -94h-355l-133 -625h377z" />
<glyph unicode="F" horiz-adv-x="655" d="M166 0h-100l309 1462h479l-20 -96h-379l-129 -614h356l-20 -95h-357z" />
<glyph unicode="G" horiz-adv-x="967" d="M645 741h295l-152 -708q-137 -53 -288 -53q-365 0 -365 458q0 184 51 389t138.5 357t199 226.5t240.5 74.5q170 0 301 -94l-64 -88q-68 50 -124.5 68t-118.5 18q-111 0 -204.5 -72t-165 -208.5t-113.5 -321t-42 -355.5q0 -191 68.5 -275.5t208.5 -84.5q100 0 192 28 l117 547h-194z" />
<glyph unicode="H" horiz-adv-x="924" d="M702 0h-98l152 717h-441l-151 -717h-98l309 1462h98l-137 -647h440l137 647h99z" />
<glyph unicode="I" horiz-adv-x="418" d="M66 0l309 1462h98l-309 -1462h-98z" />
<glyph unicode="J" horiz-adv-x="360" d="M-113 -369q-70 0 -114 25l28 92q42 -20 90 -20q68 0 105 55t63 182l318 1497h98l-321 -1519q-34 -161 -98 -236.5t-169 -75.5z" />
<glyph unicode="K" horiz-adv-x="743" d="M666 0h-101l-149 709l-129 -129l-123 -580h-98l309 1462h98l-164 -774l123 180l416 594h100l-452 -667z" />
<glyph unicode="L" horiz-adv-x="639" d="M66 0l309 1462h98l-289 -1368h359l-19 -94h-458z" />
<glyph unicode="M" horiz-adv-x="1255" d="M494 0l-52 1331h-6l-44 -240l-230 -1091h-96l309 1462h160l34 -1108l4 -164l-2 -88h2q17 50 107 250l494 1110h169l-309 -1462h-100l238 1122l49 207h-4l-596 -1329h-127z" />
<glyph unicode="N" horiz-adv-x="981" d="M760 0h-121l-201 1311h-8q-14 -115 -45 -262l-221 -1049h-98l309 1462h131l192 -1296h7l14 86l35 188l217 1022h98z" />
<glyph unicode="O" horiz-adv-x="958" d="M412 -20q-277 0 -277 399q0 196 46 414t124.5 376.5t178.5 236t218 77.5q275 0 275 -383q0 -284 -80 -557t-207 -418t-278 -145zM233 377q0 -303 187 -303q92 0 173.5 80.5t144.5 230t102 349.5t39 366q0 289 -187 289q-91 0 -171.5 -73.5t-144.5 -220.5t-103.5 -350 t-39.5 -368z" />
<glyph unicode="P" horiz-adv-x="772" d="M858 1155q0 -157 -57 -283t-164 -197t-250 -71h-96l-127 -604h-98l309 1462h170q145 0 229 -83.5t84 -223.5zM311 698h70q178 0 275.5 115.5t97.5 325.5q0 107 -58.5 167t-165.5 60h-77z" />
<glyph unicode="Q" horiz-adv-x="958" d="M412 -20q-277 0 -277 399q0 196 46 414t124.5 376.5t178.5 236t218 77.5q275 0 275 -402q0 -232 -60 -471.5t-158 -395t-218 -206.5l114 -356h-116l-97 330zM233 371q0 -297 187 -297q124 0 228 147t167.5 404t63.5 483q0 281 -187 281q-127 0 -230 -140.5t-166 -398 t-63 -479.5z" />
<glyph unicode="R" horiz-adv-x="795" d="M299 639l-135 -639h-98l309 1462h180q140 0 220.5 -82t80.5 -227q0 -120 -38.5 -228t-109.5 -179t-161 -89l121 -657h-107l-117 639h-145zM317 729h105q157 0 244.5 108.5t87.5 307.5q0 107 -58.5 164t-165.5 57h-77z" />
<glyph unicode="S" horiz-adv-x="727" d="M655 399q0 -196 -104 -307.5t-287 -111.5q-79 0 -148 17t-106 40v108q121 -71 262 -71q133 0 207 86.5t74 236.5q0 64 -16 115t-44 95.5t-110 131.5q-78 83 -108 130t-46 99.5t-16 116.5q0 114 48.5 206.5t136 142t204.5 49.5q65 0 136 -18t106 -42l-53 -94 q-91 57 -199 57q-84 0 -146.5 -37t-96.5 -103t-34 -146q0 -75 30 -138t116 -149q92 -94 124 -147t51 -117.5t19 -149.5z" />
<glyph unicode="T" horiz-adv-x="639" d="M291 0h-101l289 1366h-256l21 96h612l-20 -96h-256z" />
<glyph unicode="U" horiz-adv-x="911" d="M1012 1462l-215 -1003q-55 -253 -151.5 -366t-260.5 -113q-125 0 -190.5 78t-65.5 218q0 75 18 164l220 1022h98l-221 -1034q-19 -80 -19 -152q0 -202 172 -202q114 0 186.5 90t114.5 293l215 1005h99z" />
<glyph unicode="V" horiz-adv-x="729" d="M850 1462h100l-610 -1462h-109v1462h99v-909q0 -167 -23 -432q34 105 125 334z" />
<glyph unicode="W" horiz-adv-x="1270" d="M1376 1462h101l-588 -1462h-121l47 1094l16 239l-79 -237l-426 -1096h-121l26 1462h101l-27 -1007q-7 -211 -18 -344l26 74l99 266l389 1011h108l-32 -970q-11 -253 -25 -381q85 241 127 344z" />
<glyph unicode="X" horiz-adv-x="651" d="M547 0h-101l-53 666l-348 -666h-102l419 791l-81 671h100l68 -606l307 606h100l-377 -719z" />
<glyph unicode="Y" horiz-adv-x="616" d="M379 707l366 755h103l-447 -891l-120 -571h-101l121 571l-74 891h101z" />
<glyph unicode="Z" horiz-adv-x="580" d="M465 0h-490l19 88l641 1278h-367l21 96h473l-19 -90l-651 -1278h391z" />
<glyph unicode="[" horiz-adv-x="580" d="M383 -324h-358l381 1786h358l-21 -90h-262l-342 -1605h264z" />
<glyph unicode="\" horiz-adv-x="641" d="M365 1462l163 -1462h-96l-162 1462h95z" />
<glyph unicode="]" horiz-adv-x="580" d="M-43 -233h260l342 1605h-264l20 90h359l-381 -1786h-356z" />
<glyph unicode="^" d="M692 758l-123 590l-352 -590h-106l432 704h82l159 -704h-92z" />
<glyph unicode="_" horiz-adv-x="758" d="M729 -266h-764l17 82h763z" />
<glyph unicode="`" horiz-adv-x="1014" d="M743 1241q-48 57 -101.5 151t-70.5 160v17h127q26 -156 84 -309v-19h-39z" />
<glyph unicode="a" horiz-adv-x="817" d="M319 -20q-200 0 -200 282q0 209 62.5 414t162 317.5t217.5 112.5q134 0 174 -150h6l39 129h80l-229 -1085h-76l18 156h-4q-114 -176 -250 -176zM338 63q90 0 168 104t132 304t54 377q0 83 -35.5 125.5t-99.5 42.5q-88 0 -163 -101.5t-126 -297.5t-51 -369 q0 -91 26.5 -138t94.5 -47z" />
<glyph unicode="b" horiz-adv-x="803" d="M612 1106q201 0 201 -283q0 -211 -63 -415.5t-162.5 -316t-216.5 -111.5q-68 0 -115 41t-59 110h-7l-45 -131h-73l327 1556h95l-119 -555l-21 -81h4q52 91 118 138.5t136 47.5zM594 1022q-94 0 -173 -104.5t-130 -294t-51 -371.5q0 -186 135 -186q88 0 163.5 103.5 t126 299.5t50.5 369q0 91 -26.5 137.5t-94.5 46.5z" />
<glyph unicode="c" horiz-adv-x="588" d="M358 -20q-116 0 -177.5 80t-61.5 231q0 217 63 413.5t163 299t224 102.5q86 0 144 -33l-39 -86q-53 29 -113 29q-92 0 -168.5 -97t-126 -277t-49.5 -353q0 -223 160 -223q63 0 143 40v-86q-75 -40 -162 -40z" />
<glyph unicode="d" horiz-adv-x="817" d="M319 -20q-200 0 -200 282q0 209 62.5 414t162 317.5t217.5 112.5q69 0 115.5 -42t58.5 -110h6l125 602h95l-330 -1556h-76l18 156h-4q-114 -176 -250 -176zM338 63q90 0 168 102.5t132 300t54 378.5q0 85 -32 128.5t-103 43.5q-88 0 -163 -101.5t-126 -297.5t-51 -369 q0 -91 26.5 -138t94.5 -47z" />
<glyph unicode="e" horiz-adv-x="723" d="M373 -20q-120 0 -187 83.5t-67 233.5q0 214 60.5 401.5t164 297.5t217.5 110q87 0 134.5 -50.5t47.5 -152.5q0 -123 -59.5 -215t-170 -137t-263.5 -45h-12q-21 -99 -21 -199q0 -241 184 -241q47 0 88.5 13t94.5 44v-96q-84 -47 -211 -47zM545 1018q-89 0 -169 -118 t-126 -312q399 0 399 317q0 53 -22.5 83t-81.5 30z" />
<glyph unicode="f" horiz-adv-x="408" d="M-113 -492q-51 0 -88 11v92q37 -12 84 -12t73 26.5t47.5 88.5t47.5 186l236 1101h-121l10 54l131 41l21 98q29 143 63.5 223t80.5 115t126 35q66 0 111 -25l-41 -88q-42 21 -82 21q-47 0 -72.5 -26.5t-47 -89.5t-65.5 -274h144l-19 -84h-143l-240 -1107 q-34 -160 -65 -239t-73 -113t-118 -34z" />
<glyph unicode="g" horiz-adv-x="668" d="M821 1085l-14 -67l-137 -17q30 -57 30 -143q0 -109 -44.5 -224.5t-118 -181t-162.5 -65.5h-25l-22 2q-125 -87 -125 -158q0 -23 8 -37.5t25 -24t118 -40.5q126 -39 177 -98.5t51 -159.5q0 -161 -106 -262t-273 -101q-132 0 -204.5 67t-72.5 189q0 105 65 191.5t185 140.5 q-63 42 -63 113q0 52 32 101t115 108q-86 72 -86 209q0 123 49.5 240.5t125 178t167.5 60.5q64 0 98 -21h207zM16 -229q0 -98 49.5 -141.5t145.5 -43.5q122 0 202.5 74t80.5 193q0 64 -40.5 111t-123.5 71l-90 24q-96 -32 -160 -113t-64 -175zM266 612q0 -74 28.5 -112.5 t82.5 -38.5q62 0 112.5 52.5t83.5 158t33 202.5q0 154 -108 154q-61 0 -112.5 -56t-85.5 -164.5t-34 -195.5z" />
<glyph unicode="h" horiz-adv-x="784" d="M504 0l172 815q10 40 10 84q0 113 -100 113q-105 0 -176 -101t-115 -315l-127 -596h-94l329 1556h95l-99 -454l-41 -168h4q93 172 242 172q84 0 130 -48.5t46 -139.5q0 -56 -14 -121l-168 -797h-94z" />
<glyph unicode="i" horiz-adv-x="348" d="M162 0h-94l231 1085h94zM346 1356q0 51 23 88t59 37q47 0 47 -58q0 -57 -22 -94t-58 -37q-49 0 -49 64z" />
<glyph unicode="j" horiz-adv-x="348" d="M346 1356q0 51 23 88t59 37q47 0 47 -58q0 -57 -22 -94t-58 -37q-49 0 -49 64zM299 1085h94l-254 -1191q-34 -160 -65 -238t-73.5 -113t-117.5 -35q-51 0 -88 11v92q37 -12 84 -12t73 26.5t47.5 88.5t47.5 186z" />
<glyph unicode="k" horiz-adv-x="639" d="M276 549l48 59l82 105l270 372h102l-307 -430l96 -655h-98l-84 573l-127 -139l-92 -434h-94l331 1556h95l-179 -817q-8 -40 -45 -190h2z" />
<glyph unicode="l" horiz-adv-x="346" d="M166 0h-94l331 1556h95z" />
<glyph unicode="m" horiz-adv-x="1171" d="M891 0l172 813q10 47 10 84q0 115 -94 115q-82 0 -146 -71.5t-88 -188.5l-157 -752h-94l168 799q12 58 12 98q0 115 -99 115q-101 0 -168 -96t-114 -320l-127 -596h-94l229 1085h80l-25 -151h4q91 172 240 172q73 0 114.5 -36t51.5 -114q51 75 107 112.5t131 37.5 q77 0 119 -50t42 -149q0 -57 -14 -121l-166 -786h-94z" />
<glyph unicode="n" horiz-adv-x="782" d="M502 0l172 815q10 40 10 84q0 113 -100 113q-105 0 -176 -101t-115 -315l-127 -596h-94l229 1085h80l-25 -151h4q93 172 242 172q84 0 130 -48.5t46 -139.5q0 -56 -14 -121l-168 -797h-94z" />
<glyph unicode="o" horiz-adv-x="780" d="M340 -20q-107 0 -164 80t-57 227q0 142 36 305t94 276.5t136 175.5t174 62q106 0 165.5 -82.5t59.5 -232.5q0 -139 -36.5 -298.5t-95.5 -274t-138 -176.5t-174 -62zM217 268q0 -202 135 -202q89 0 164 101.5t122.5 286.5t47.5 357q0 205 -139 205q-84 0 -157.5 -98 t-123 -286t-49.5 -364z" />
<glyph unicode="p" horiz-adv-x="803" d="M614 1106q201 0 201 -283q0 -210 -63 -414.5t-162 -316.5t-217 -112q-68 0 -115 41t-59 110h-6l-125 -602h-95l330 1556h82l-25 -155h5q114 176 249 176zM596 1022q-94 0 -173 -104.5t-130 -294t-51 -371.5q0 -186 135 -186q88 0 163.5 103.5t126 299.5t50.5 369 q0 91 -26.5 137.5t-94.5 46.5z" />
<glyph unicode="q" horiz-adv-x="817" d="M319 -20q-200 0 -200 282q0 209 62.5 414t162 317.5t217.5 112.5q134 0 174 -150h6l39 129h80l-334 -1577h-94l103 488l43 162h-5q-115 -178 -254 -178zM338 63q90 0 168 104t132 304t54 377q0 83 -35.5 125.5t-99.5 42.5q-88 0 -163 -101.5t-126 -297.5t-51 -369 q0 -91 26.5 -138t94.5 -47z" />
<glyph unicode="r" horiz-adv-x="504" d="M582 1106q39 0 73 -12l-26 -97q-30 15 -66 15q-85 0 -158 -117t-116 -320l-123 -575h-94l229 1085h70l-29 -190h4q88 211 236 211z" />
<glyph unicode="s" horiz-adv-x="594" d="M229 -20q-56 0 -117 14t-83 31v110q24 -24 80.5 -44.5t113.5 -20.5q97 0 151 56.5t54 160.5q0 44 -11 80.5t-28.5 67.5t-77.5 97q-65 71 -88 107.5t-36 78.5t-13 97q0 130 80 210.5t207 80.5q136 0 219 -62l-51 -86q-71 58 -172 58q-82 0 -135.5 -51.5t-53.5 -137.5 q0 -59 21.5 -107t81.5 -114q72 -78 97.5 -118t40.5 -87t15 -104q0 -152 -76.5 -234.5t-218.5 -82.5z" />
<glyph unicode="t" horiz-adv-x="403" d="M328 80v-80q-56 -20 -105 -20q-127 0 -127 151q0 38 13 100l163 770h-98l12 56l103 28l80 258h69l-55 -258h143l-18 -84h-143l-158 -743q-14 -64 -14 -106q0 -45 16.5 -64.5t52.5 -19.5q31 0 66 12z" />
<glyph unicode="u" horiz-adv-x="786" d="M395 1085l-162 -755q-18 -78 -18 -135q0 -123 94 -123q209 0 297 417l127 596h94l-231 -1085h-74l8 135h-4q-101 -155 -239 -155q-164 0 -164 198q0 79 20 166l158 741h94z" />
<glyph unicode="v" horiz-adv-x="588" d="M178 0v1085h94v-659q0 -38 -4.5 -141.5t-11.5 -161.5h6q21 62 51 141t338 821h99l-459 -1085h-113z" />
<glyph unicode="w" horiz-adv-x="1012" d="M608 0l29 735l12 228q-40 -118 -54 -158t-308 -805h-117l20 1085h95l-13 -632q-4 -176 -22 -330h4q8 28 39.5 115t324.5 847h109l-16 -632q-3 -90 -15 -262l-4 -68h4l60 157l313 805h96l-436 -1085h-121z" />
<glyph unicode="x" horiz-adv-x="608" d="M313 571l-92 514h96l70 -434l250 434h100l-327 -538l108 -547h-96l-80 461l-268 -461h-101z" />
<glyph unicode="y" horiz-adv-x="588" d="M-68 -492q-46 0 -90 19v86q37 -16 88 -16q54 0 92.5 43.5t94.5 173.5l71 170l-8 1101h94v-639q0 -161 -12 -323h6q53 157 97 264l288 698h99l-562 -1329q-58 -138 -116 -193t-142 -55z" />
<glyph unicode="z" horiz-adv-x="487" d="M389 0h-393l14 76l475 925h-264l19 84h364l-16 -77l-477 -924h297z" />
<glyph unicode="{" horiz-adv-x="664" d="M838 1462l-19 -80q-113 -2 -164.5 -48t-72.5 -150l-76 -353q-23 -111 -82.5 -174.5t-167.5 -85.5v-4q77 -17 113.5 -59t36.5 -113q0 -33 -11 -88l-67 -315q-11 -55 -11 -86q0 -75 35.5 -111.5t116.5 -38.5v-80q-129 4 -187.5 60t-58.5 164q0 45 13 96l67 323q8 32 8 70 q0 146 -186 146l16 69q119 0 182.5 54.5t86.5 160.5l79 371q30 145 111 208.5t238 63.5z" />
<glyph unicode="|" d="M225 -492h-92l434 2048h92z" />
<glyph unicode="}" horiz-adv-x="664" d="M-59 -324l18 80q112 2 164 47t74 152l75 352q23 112 82.5 175.5t167.5 84.5v4q-77 17 -113 59t-36 113q0 40 10 88l68 316q10 50 10 86q0 74 -35.5 110.5t-116.5 38.5v80q129 -3 187.5 -59.5t58.5 -163.5q0 -44 -12 -96l-68 -324q-8 -32 -8 -69q0 -146 186 -146l-16 -69 q-119 0 -182 -54.5t-86 -161.5l-80 -370q-30 -146 -111.5 -209.5t-236.5 -63.5z" />
<glyph unicode="~" d="M602 625q-81 0 -168 55q-38 22 -74 40.5t-79 18.5q-71 0 -170 -121v99q86 106 188 106q49 0 95.5 -19.5t95.5 -48.5q73 -44 131 -44q43 0 82.5 29t84.5 87v-98q-82 -104 -186 -104z" />
<glyph unicode="&#xa2;" d="M301 -20l47 219q-155 44 -155 288q0 196 52.5 382t140 300t198.5 140l37 174h84l-35 -170q70 -6 116 -31l-38 -86q-53 29 -113 29q-93 0 -169.5 -100t-125.5 -282.5t-49 -353.5q0 -115 37.5 -165t109.5 -50q45 0 77.5 13.5t55.5 25.5l23 -84q-26 -16 -72 -27.5t-92 -13.5 l-45 -208h-84z" />
<glyph unicode="&#xa3;" d="M680 1483q60 0 106.5 -17.5t100.5 -64.5l-64 -78q-63 70 -151 70q-81 0 -128.5 -66t-76.5 -207l-74 -352h223l-18 -86h-223l-62 -287q-47 -223 -159 -301h456l-20 -94h-582l19 82q63 28 112.5 107.5t75.5 203.5l61 289h-141l19 86h141l82 385q34 158 106 244t197 86z" />
<glyph unicode="&#xa5;" d="M358 655l-36 807h92l24 -745l338 745h94l-376 -807h180l-19 -82h-200l-41 -200h198l-16 -82h-199l-63 -291h-96l61 291h-195l17 82h194l41 200h-192l18 82h176z" />
<glyph unicode="&#xa8;" horiz-adv-x="1014" d="M453 1362q0 49 22.5 81t59.5 32q47 0 47 -58q0 -53 -21.5 -86t-58.5 -33q-49 0 -49 64zM725 1362q0 49 23 81t59 32q47 0 47 -58q0 -53 -21.5 -86t-58.5 -33q-49 0 -49 64z" />
<glyph unicode="&#xa9;" horiz-adv-x="1704" d="M971 1092q-142 0 -222.5 -94.5t-80.5 -264.5q0 -186 74.5 -275t220.5 -89q84 0 198 43v-88q-102 -45 -209 -45q-187 0 -288 116t-101 330q0 208 111 332.5t297 124.5q119 0 227 -52l-37 -83q-98 45 -190 45zM174 731q0 200 100 375t275 276t377 101q199 0 373.5 -99 t276 -275.5t101.5 -377.5q0 -199 -98.5 -373t-272.5 -276t-380 -102q-207 0 -382 103.5t-272.5 276.5t-97.5 371zM266 731q0 -182 92 -335t243 -238.5t325 -85.5q178 0 329.5 88.5t240.5 240.5t89 330q0 174 -85.5 325t-239 243t-334.5 92q-178 0 -330 -89t-241 -240.5 t-89 -330.5z" />
<glyph unicode="&#xab;" horiz-adv-x="770" d="M465 907l57 -41l-276 -340l125 -350l-64 -29l-180 367l4 27zM776 907l55 -41l-274 -340l123 -350l-62 -29l-182 367l4 27z" />
<glyph unicode="&#xad;" horiz-adv-x="465" d="M94 502l23 102h368l-22 -102h-369z" />
<glyph unicode="&#xae;" horiz-adv-x="1704" d="M782 731h113q91 0 143 46.5t52 135.5q0 172 -197 172h-111v-354zM1194 918q0 -79 -39 -140t-111 -94l238 -393h-121l-211 360h-168v-360h-100v880h211q142 0 221.5 -62t79.5 -191zM174 731q0 200 100 375t275 276t377 101q199 0 373.5 -99t276 -275.5t101.5 -377.5 q0 -199 -98.5 -373t-272.5 -276t-380 -102q-207 0 -382 103.5t-272.5 276.5t-97.5 371zM266 731q0 -182 92 -335t243 -238.5t325 -85.5q178 0 329.5 88.5t240.5 240.5t89 330q0 174 -85.5 325t-239 243t-334.5 92q-178 0 -330 -89t-241 -240.5t-89 -330.5z" />
<glyph unicode="&#xb4;" horiz-adv-x="1014" d="M500 1241v16q154 186 223 312h139v-17q-42 -63 -136 -156t-175 -155h-51z" />
<glyph unicode="&#xb8;" horiz-adv-x="418" d="M330 -266q0 -100 -68.5 -163t-179.5 -63q-24 0 -60 3.5t-49 7.5v78q26 -11 103 -11q78 0 122 36.5t44 98.5q0 45 -35 74t-117 45l103 160h81l-79 -115q65 -18 100 -58.5t35 -92.5z" />
<glyph unicode="&#xbb;" horiz-adv-x="770" d="M416 147l-58 41l277 340l-125 351l63 28l181 -366l-4 -27zM104 147l-55 41l275 340l-123 351l61 28l182 -366l-4 -27z" />
<glyph unicode="&#xc4;" horiz-adv-x="731" d="M0 0zM555 0v530h-307l-221 -530h-105l606 1468h123v-1468h-96zM555 629v370l6 355q-15 -52 -52 -152t-226 -573h272zM423 1700q0 49 22.5 81t59.5 32q47 0 47 -58q0 -53 -21.5 -86t-58.5 -33q-49 0 -49 64zM695 1700q0 49 23 81t59 32q47 0 47 -58q0 -53 -21.5 -86 t-58.5 -33q-49 0 -49 64z" />
<glyph unicode="&#xd6;" horiz-adv-x="958" d="M135 0zM412 -20q-277 0 -277 399q0 196 46 414t124.5 376.5t178.5 236t218 77.5q275 0 275 -383q0 -284 -80 -557t-207 -418t-278 -145zM233 377q0 -303 187 -303q92 0 173.5 80.5t144.5 230t102 349.5t39 366q0 289 -187 289q-91 0 -171.5 -73.5t-144.5 -220.5 t-103.5 -350t-39.5 -368zM547 1700q0 49 22.5 81t59.5 32q47 0 47 -58q0 -53 -21.5 -86t-58.5 -33q-49 0 -49 64zM819 1700q0 49 23 81t59 32q47 0 47 -58q0 -53 -21.5 -86t-58.5 -33q-49 0 -49 64z" />
<glyph unicode="&#xdc;" horiz-adv-x="911" d="M129 0zM1012 1462l-215 -1003q-55 -253 -151.5 -366t-260.5 -113q-125 0 -190.5 78t-65.5 218q0 75 18 164l220 1022h98l-221 -1034q-19 -80 -19 -152q0 -202 172 -202q114 0 186.5 90t114.5 293l215 1005h99zM527 1700q0 49 22.5 81t59.5 32q47 0 47 -58 q0 -53 -21.5 -86t-58.5 -33q-49 0 -49 64zM799 1700q0 49 23 81t59 32q47 0 47 -58q0 -53 -21.5 -86t-58.5 -33q-49 0 -49 64z" />
<glyph unicode="&#xdf;" horiz-adv-x="741" d="M623 1567q89 0 139.5 -57.5t50.5 -151.5q0 -75 -31 -145.5t-120 -174.5q-71 -84 -94 -135t-23 -100q0 -54 24 -109t52 -116q26 -57 46.5 -120.5t20.5 -138.5q0 -150 -82 -244.5t-217 -94.5q-51 0 -94 13t-66 32v100q77 -55 164 -55q91 0 145 64t54 173q0 100 -51 217 l-31 68q-61 121 -61 201q0 72 27.5 134.5t86.5 127.5q84 92 119 157t35 146q0 59 -30 87t-81 28q-73 0 -121 -64t-75 -195l-285 -1320q-36 -164 -67 -241.5t-73 -111t-116 -33.5q-51 0 -88 11v92q36 -12 84 -12q47 0 73 26.5t47.5 88.5t47.5 186l278 1304q38 181 113 272 t199 91z" />
<glyph unicode="&#xe4;" horiz-adv-x="817" d="M119 0zM319 -20q-200 0 -200 282q0 209 62.5 414t162 317.5t217.5 112.5q134 0 174 -150h6l39 129h80l-229 -1085h-76l18 156h-4q-114 -176 -250 -176zM338 63q90 0 168 104t132 304t54 377q0 83 -35.5 125.5t-99.5 42.5q-88 0 -163 -101.5t-126 -297.5t-51 -369 q0 -91 26.5 -138t94.5 -47zM413 1362q0 49 22.5 81t59.5 32q47 0 47 -58q0 -53 -21.5 -86t-58.5 -33q-49 0 -49 64zM685 1362q0 49 23 81t59 32q47 0 47 -58q0 -53 -21.5 -86t-58.5 -33q-49 0 -49 64z" />
<glyph unicode="&#xf6;" horiz-adv-x="780" d="M119 0zM340 -20q-107 0 -164 80t-57 227q0 142 36 305t94 276.5t136 175.5t174 62q106 0 165.5 -82.5t59.5 -232.5q0 -139 -36.5 -298.5t-95.5 -274t-138 -176.5t-174 -62zM217 268q0 -202 135 -202q89 0 164 101.5t122.5 286.5t47.5 357q0 205 -139 205 q-84 0 -157.5 -98t-123 -286t-49.5 -364zM409 1362q0 49 22.5 81t59.5 32q47 0 47 -58q0 -53 -21.5 -86t-58.5 -33q-49 0 -49 64zM681 1362q0 49 23 81t59 32q47 0 47 -58q0 -53 -21.5 -86t-58.5 -33q-49 0 -49 64z" />
<glyph unicode="&#xfc;" horiz-adv-x="786" d="M123 0zM395 1085l-162 -755q-18 -78 -18 -135q0 -123 94 -123q209 0 297 417l127 596h94l-231 -1085h-74l8 135h-4q-101 -155 -239 -155q-164 0 -164 198q0 79 20 166l158 741h94zM399 1362q0 49 22.5 81t59.5 32q47 0 47 -58q0 -53 -21.5 -86t-58.5 -33q-49 0 -49 64z M671 1362q0 49 23 81t59 32q47 0 47 -58q0 -53 -21.5 -86t-58.5 -33q-49 0 -49 64z" />
<glyph unicode="&#x2c6;" horiz-adv-x="1040" d="M803 1241q-59 88 -125 203q-132 -132 -219 -203h-45l4 19q160 182 239 309h86q11 -51 47.5 -150.5t63.5 -158.5l-4 -19h-47z" />
<glyph unicode="&#x2da;" horiz-adv-x="1063" d="M868 1442q0 -88 -51 -139.5t-139 -51.5q-90 0 -140.5 51t-50.5 136t50.5 135.5t140.5 50.5q84 0 137 -51t53 -131zM797 1438q0 52 -31.5 86.5t-87.5 34.5t-87.5 -34.5t-31.5 -86.5q0 -54 28.5 -86.5t90.5 -32.5q53 0 86 32.5t33 86.5z" />
<glyph unicode="&#x2dc;" horiz-adv-x="1040" d="M784 1251q-35 0 -64.5 20.5t-57 45t-53 45t-50.5 20.5q-40 0 -62.5 -35t-39.5 -98h-70q31 120 75.5 175t104.5 55q36 0 65 -20.5t54.5 -45t49.5 -45t48 -20.5q30 0 47.5 22.5t40.5 112.5h70q-29 -134 -65.5 -183t-92.5 -49z" />
<glyph unicode="&#x2000;" horiz-adv-x="906" />
<glyph unicode="&#x2001;" horiz-adv-x="1813" />
<glyph unicode="&#x2002;" horiz-adv-x="906" />
<glyph unicode="&#x2003;" horiz-adv-x="1813" />
<glyph unicode="&#x2004;" horiz-adv-x="604" />
<glyph unicode="&#x2005;" horiz-adv-x="453" />
<glyph unicode="&#x2006;" horiz-adv-x="302" />
<glyph unicode="&#x2007;" horiz-adv-x="302" />
<glyph unicode="&#x2008;" horiz-adv-x="226" />
<glyph unicode="&#x2009;" horiz-adv-x="362" />
<glyph unicode="&#x200a;" horiz-adv-x="100" />
<glyph unicode="&#x2010;" horiz-adv-x="465" d="M94 502l23 102h368l-22 -102h-369z" />
<glyph unicode="&#x2011;" horiz-adv-x="465" d="M94 502l23 102h368l-22 -102h-369z" />
<glyph unicode="&#x2012;" horiz-adv-x="465" d="M94 502l23 102h368l-22 -102h-369z" />
<glyph unicode="&#x2013;" horiz-adv-x="922" d="M123 512l16 82h774l-16 -82h-774z" />
<glyph unicode="&#x2014;" horiz-adv-x="1843" d="M123 512l16 82h1696l-16 -82h-1696z" />
<glyph unicode="&#x2018;" horiz-adv-x="285" d="M147 1016q112 230 246 446h66q-43 -86 -98.5 -218.5t-92.5 -250.5h-112z" />
<glyph unicode="&#x2019;" horiz-adv-x="285" d="M459 1440q-95 -202 -244 -447h-65q119 255 190 469h111z" />
<glyph unicode="&#x201a;" horiz-adv-x="379" d="M0 0zM289 182q-102 -214 -244 -446h-65q41 88 96.5 224t89.5 245h115z" />
<glyph unicode="&#x201c;" horiz-adv-x="539" d="M414 1016q115 237 245 446h64q-43 -86 -98.5 -218.5t-92.5 -250.5h-110zM160 1016q118 243 246 446h63q-49 -97 -103 -229.5t-87 -239.5h-111z" />
<glyph unicode="&#x201d;" horiz-adv-x="539" d="M451 1440q-95 -202 -244 -447h-64q112 232 191 469h108zM705 1440q-95 -202 -244 -447h-64q112 232 191 469h110z" />
<glyph unicode="&#x201e;" horiz-adv-x="539" d="M227 182q-97 -207 -243 -446h-64q112 232 191 469h108zM481 182q-97 -207 -243 -446h-64q39 82 95.5 217t95.5 252h110z" />
<glyph unicode="&#x2026;" horiz-adv-x="1139" d="M117 53q0 60 27 102t75 42q27 0 42 -21t15 -55q0 -61 -27.5 -99t-70.5 -38q-25 0 -43 17.5t-18 51.5zM498 53q0 60 27 102t75 42q27 0 42 -21t15 -55q0 -61 -27.5 -99t-70.5 -38q-25 0 -43 17.5t-18 51.5zM879 53q0 60 27 102t75 42q27 0 42 -21t15 -55q0 -61 -27.5 -99 t-70.5 -38q-25 0 -43 17.5t-18 51.5z" />
<glyph unicode="&#x202f;" horiz-adv-x="362" />
<glyph unicode="&#x2039;" horiz-adv-x="461" d="M465 907l57 -41l-276 -340l125 -350l-64 -29l-180 367l4 27z" />
<glyph unicode="&#x203a;" horiz-adv-x="461" d="M106 147l-57 41l277 340l-125 351l63 28l180 -366l-4 -27z" />
<glyph unicode="&#x205f;" horiz-adv-x="453" />
<glyph unicode="&#x20ac;" d="M729 1389q-122 0 -227.5 -131t-169.5 -359h323l-18 -82h-326q-17 -72 -35 -201h291l-18 -81h-279v-68q0 -213 46 -304t151 -91q91 0 158 39l16 -91q-78 -40 -195 -40q-137 0 -205.5 120t-68.5 349l2 86h-131l18 81h119q11 112 31 201h-109l19 82h110q73 271 208.5 428.5 t295.5 157.5q116 0 180 -62l-55 -86q-52 52 -131 52z" />
<glyph unicode="&#x2122;" horiz-adv-x="1378" d="M504 815h-78v578h-195v69h469v-69h-196v-578zM1042 815l-198 547h-4l2 -180v-367h-74v647h113l198 -544l203 544h111v-647h-76v356l2 187h-4l-205 -543h-68z" />
<glyph unicode="&#xe000;" horiz-adv-x="1085" d="M0 1085h1085v-1085h-1085v1085z" />
<glyph horiz-adv-x="815" d="M0 0z" />
<hkern u1="&#x22;" u2="&#xfc;" k="61" />
<hkern u1="&#x22;" u2="&#xf6;" k="123" />
<hkern u1="&#x22;" u2="&#xe4;" k="82" />
<hkern u1="&#x22;" u2="&#xc4;" k="143" />
<hkern u1="&#x22;" u2="u" k="61" />
<hkern u1="&#x22;" u2="s" k="61" />
<hkern u1="&#x22;" u2="r" k="61" />
<hkern u1="&#x22;" u2="q" k="123" />
<hkern u1="&#x22;" u2="p" k="61" />
<hkern u1="&#x22;" u2="o" k="123" />
<hkern u1="&#x22;" u2="n" k="61" />
<hkern u1="&#x22;" u2="m" k="61" />
<hkern u1="&#x22;" u2="g" k="61" />
<hkern u1="&#x22;" u2="e" k="123" />
<hkern u1="&#x22;" u2="d" k="123" />
<hkern u1="&#x22;" u2="c" k="123" />
<hkern u1="&#x22;" u2="a" k="82" />
<hkern u1="&#x22;" u2="Y" k="-20" />
<hkern u1="&#x22;" u2="W" k="-41" />
<hkern u1="&#x22;" u2="V" k="-41" />
<hkern u1="&#x22;" u2="T" k="-41" />
<hkern u1="&#x22;" u2="A" k="143" />
<hkern u1="&#x27;" u2="&#xfc;" k="61" />
<hkern u1="&#x27;" u2="&#xf6;" k="123" />
<hkern u1="&#x27;" u2="&#xe4;" k="82" />
<hkern u1="&#x27;" u2="&#xc4;" k="143" />
<hkern u1="&#x27;" u2="u" k="61" />
<hkern u1="&#x27;" u2="s" k="61" />
<hkern u1="&#x27;" u2="r" k="61" />
<hkern u1="&#x27;" u2="q" k="123" />
<hkern u1="&#x27;" u2="p" k="61" />
<hkern u1="&#x27;" u2="o" k="123" />
<hkern u1="&#x27;" u2="n" k="61" />
<hkern u1="&#x27;" u2="m" k="61" />
<hkern u1="&#x27;" u2="g" k="61" />
<hkern u1="&#x27;" u2="e" k="123" />
<hkern u1="&#x27;" u2="d" k="123" />
<hkern u1="&#x27;" u2="c" k="123" />
<hkern u1="&#x27;" u2="a" k="82" />
<hkern u1="&#x27;" u2="Y" k="-20" />
<hkern u1="&#x27;" u2="W" k="-41" />
<hkern u1="&#x27;" u2="V" k="-41" />
<hkern u1="&#x27;" u2="T" k="-41" />
<hkern u1="&#x27;" u2="A" k="143" />
<hkern u1="&#x28;" u2="J" k="-184" />
<hkern u1="&#x2c;" u2="&#xdc;" k="41" />
<hkern u1="&#x2c;" u2="&#xd6;" k="102" />
<hkern u1="&#x2c;" u2="Y" k="123" />
<hkern u1="&#x2c;" u2="W" k="123" />
<hkern u1="&#x2c;" u2="V" k="123" />
<hkern u1="&#x2c;" u2="U" k="41" />
<hkern u1="&#x2c;" u2="T" k="143" />
<hkern u1="&#x2c;" u2="Q" k="102" />
<hkern u1="&#x2c;" u2="O" k="102" />
<hkern u1="&#x2c;" u2="G" k="102" />
<hkern u1="&#x2c;" u2="C" k="102" />
<hkern u1="&#x2d;" u2="T" k="82" />
<hkern u1="&#x2e;" u2="&#xdc;" k="41" />
<hkern u1="&#x2e;" u2="&#xd6;" k="102" />
<hkern u1="&#x2e;" u2="Y" k="123" />
<hkern u1="&#x2e;" u2="W" k="123" />
<hkern u1="&#x2e;" u2="V" k="123" />
<hkern u1="&#x2e;" u2="U" k="41" />
<hkern u1="&#x2e;" u2="T" k="143" />
<hkern u1="&#x2e;" u2="Q" k="102" />
<hkern u1="&#x2e;" u2="O" k="102" />
<hkern u1="&#x2e;" u2="G" k="102" />
<hkern u1="&#x2e;" u2="C" k="102" />
<hkern u1="A" u2="&#x201d;" k="143" />
<hkern u1="A" u2="&#x2019;" k="143" />
<hkern u1="A" u2="&#xd6;" k="41" />
<hkern u1="A" u2="Y" k="123" />
<hkern u1="A" u2="W" k="82" />
<hkern u1="A" u2="V" k="82" />
<hkern u1="A" u2="T" k="143" />
<hkern u1="A" u2="Q" k="41" />
<hkern u1="A" u2="O" k="41" />
<hkern u1="A" u2="J" k="-266" />
<hkern u1="A" u2="G" k="41" />
<hkern u1="A" u2="C" k="41" />
<hkern u1="A" u2="&#x27;" k="143" />
<hkern u1="A" u2="&#x22;" k="143" />
<hkern u1="B" u2="&#x201e;" k="82" />
<hkern u1="B" u2="&#x201a;" k="82" />
<hkern u1="B" u2="&#xc4;" k="41" />
<hkern u1="B" u2="Z" k="20" />
<hkern u1="B" u2="Y" k="20" />
<hkern u1="B" u2="X" k="41" />
<hkern u1="B" u2="W" k="20" />
<hkern u1="B" u2="V" k="20" />
<hkern u1="B" u2="T" k="61" />
<hkern u1="B" u2="A" k="41" />
<hkern u1="B" u2="&#x2e;" k="82" />
<hkern u1="B" u2="&#x2c;" k="82" />
<hkern u1="C" u2="&#xd6;" k="41" />
<hkern u1="C" u2="Q" k="41" />
<hkern u1="C" u2="O" k="41" />
<hkern u1="C" u2="G" k="41" />
<hkern u1="C" u2="C" k="41" />
<hkern u1="D" u2="&#x201e;" k="82" />
<hkern u1="D" u2="&#x201a;" k="82" />
<hkern u1="D" u2="&#xc4;" k="41" />
<hkern u1="D" u2="Z" k="20" />
<hkern u1="D" u2="Y" k="20" />
<hkern u1="D" u2="X" k="41" />
<hkern u1="D" u2="W" k="20" />
<hkern u1="D" u2="V" k="20" />
<hkern u1="D" u2="T" k="61" />
<hkern u1="D" u2="A" k="41" />
<hkern u1="D" u2="&#x2e;" k="82" />
<hkern u1="D" u2="&#x2c;" k="82" />
<hkern u1="E" u2="J" k="-123" />
<hkern u1="F" u2="&#x201e;" k="123" />
<hkern u1="F" u2="&#x201a;" k="123" />
<hkern u1="F" u2="&#xc4;" k="41" />
<hkern u1="F" u2="A" k="41" />
<hkern u1="F" u2="&#x3f;" k="-41" />
<hkern u1="F" u2="&#x2e;" k="123" />
<hkern u1="F" u2="&#x2c;" k="123" />
<hkern u1="K" u2="&#xd6;" k="41" />
<hkern u1="K" u2="Q" k="41" />
<hkern u1="K" u2="O" k="41" />
<hkern u1="K" u2="G" k="41" />
<hkern u1="K" u2="C" k="41" />
<hkern u1="L" u2="&#x201d;" k="164" />
<hkern u1="L" u2="&#x2019;" k="164" />
<hkern u1="L" u2="&#xdc;" k="20" />
<hkern u1="L" u2="&#xd6;" k="41" />
<hkern u1="L" u2="Y" k="61" />
<hkern u1="L" u2="W" k="41" />
<hkern u1="L" u2="V" k="41" />
<hkern u1="L" u2="U" k="20" />
<hkern u1="L" u2="T" k="41" />
<hkern u1="L" u2="Q" k="41" />
<hkern u1="L" u2="O" k="41" />
<hkern u1="L" u2="G" k="41" />
<hkern u1="L" u2="C" k="41" />
<hkern u1="L" u2="&#x27;" k="164" />
<hkern u1="L" u2="&#x22;" k="164" />
<hkern u1="O" u2="&#x201e;" k="82" />
<hkern u1="O" u2="&#x201a;" k="82" />
<hkern u1="O" u2="&#xc4;" k="41" />
<hkern u1="O" u2="Z" k="20" />
<hkern u1="O" u2="Y" k="20" />
<hkern u1="O" u2="X" k="41" />
<hkern u1="O" u2="W" k="20" />
<hkern u1="O" u2="V" k="20" />
<hkern u1="O" u2="T" k="61" />
<hkern u1="O" u2="A" k="41" />
<hkern u1="O" u2="&#x2e;" k="82" />
<hkern u1="O" u2="&#x2c;" k="82" />
<hkern u1="P" u2="&#x201e;" k="266" />
<hkern u1="P" u2="&#x201a;" k="266" />
<hkern u1="P" u2="&#xc4;" k="102" />
<hkern u1="P" u2="Z" k="20" />
<hkern u1="P" u2="X" k="41" />
<hkern u1="P" u2="A" k="102" />
<hkern u1="P" u2="&#x2e;" k="266" />
<hkern u1="P" u2="&#x2c;" k="266" />
<hkern u1="Q" u2="&#x201e;" k="82" />
<hkern u1="Q" u2="&#x201a;" k="82" />
<hkern u1="Q" u2="&#xc4;" k="41" />
<hkern u1="Q" u2="Z" k="20" />
<hkern u1="Q" u2="Y" k="20" />
<hkern u1="Q" u2="X" k="41" />
<hkern u1="Q" u2="W" k="20" />
<hkern u1="Q" u2="V" k="20" />
<hkern u1="Q" u2="T" k="61" />
<hkern u1="Q" u2="A" k="41" />
<hkern u1="Q" u2="&#x2e;" k="82" />
<hkern u1="Q" u2="&#x2c;" k="82" />
<hkern u1="T" u2="&#x201e;" k="123" />
<hkern u1="T" u2="&#x201a;" k="123" />
<hkern u1="T" u2="&#x2014;" k="82" />
<hkern u1="T" u2="&#x2013;" k="82" />
<hkern u1="T" u2="&#xfc;" k="102" />
<hkern u1="T" u2="&#xf6;" k="143" />
<hkern u1="T" u2="&#xe4;" k="164" />
<hkern u1="T" u2="&#xd6;" k="41" />
<hkern u1="T" u2="&#xc4;" k="143" />
<hkern u1="T" u2="z" k="82" />
<hkern u1="T" u2="y" k="41" />
<hkern u1="T" u2="x" k="41" />
<hkern u1="T" u2="w" k="41" />
<hkern u1="T" u2="v" k="41" />
<hkern u1="T" u2="u" k="102" />
<hkern u1="T" u2="s" k="123" />
<hkern u1="T" u2="r" k="102" />
<hkern u1="T" u2="q" k="143" />
<hkern u1="T" u2="p" k="102" />
<hkern u1="T" u2="o" k="143" />
<hkern u1="T" u2="n" k="102" />
<hkern u1="T" u2="m" k="102" />
<hkern u1="T" u2="g" k="143" />
<hkern u1="T" u2="e" k="143" />
<hkern u1="T" u2="d" k="143" />
<hkern u1="T" u2="c" k="143" />
<hkern u1="T" u2="a" k="164" />
<hkern u1="T" u2="T" k="-41" />
<hkern u1="T" u2="Q" k="41" />
<hkern u1="T" u2="O" k="41" />
<hkern u1="T" u2="G" k="41" />
<hkern u1="T" u2="C" k="41" />
<hkern u1="T" u2="A" k="143" />
<hkern u1="T" u2="&#x3f;" k="-41" />
<hkern u1="T" u2="&#x2e;" k="123" />
<hkern u1="T" u2="&#x2d;" k="82" />
<hkern u1="T" u2="&#x2c;" k="123" />
<hkern u1="U" u2="&#x201e;" k="41" />
<hkern u1="U" u2="&#x201a;" k="41" />
<hkern u1="U" u2="&#xc4;" k="20" />
<hkern u1="U" u2="A" k="20" />
<hkern u1="U" u2="&#x2e;" k="41" />
<hkern u1="U" u2="&#x2c;" k="41" />
<hkern u1="V" u2="&#x201e;" k="102" />
<hkern u1="V" u2="&#x201a;" k="102" />
<hkern u1="V" u2="&#xfc;" k="20" />
<hkern u1="V" u2="&#xf6;" k="41" />
<hkern u1="V" u2="&#xe4;" k="41" />
<hkern u1="V" u2="&#xd6;" k="20" />
<hkern u1="V" u2="&#xc4;" k="82" />
<hkern u1="V" u2="u" k="20" />
<hkern u1="V" u2="s" k="20" />
<hkern u1="V" u2="r" k="20" />
<hkern u1="V" u2="q" k="41" />
<hkern u1="V" u2="p" k="20" />
<hkern u1="V" u2="o" k="41" />
<hkern u1="V" u2="n" k="20" />
<hkern u1="V" u2="m" k="20" />
<hkern u1="V" u2="g" k="20" />
<hkern u1="V" u2="e" k="41" />
<hkern u1="V" u2="d" k="41" />
<hkern u1="V" u2="c" k="41" />
<hkern u1="V" u2="a" k="41" />
<hkern u1="V" u2="Q" k="20" />
<hkern u1="V" u2="O" k="20" />
<hkern u1="V" u2="G" k="20" />
<hkern u1="V" u2="C" k="20" />
<hkern u1="V" u2="A" k="82" />
<hkern u1="V" u2="&#x3f;" k="-41" />
<hkern u1="V" u2="&#x2e;" k="102" />
<hkern u1="V" u2="&#x2c;" k="102" />
<hkern u1="W" u2="&#x201e;" k="102" />
<hkern u1="W" u2="&#x201a;" k="102" />
<hkern u1="W" u2="&#xfc;" k="20" />
<hkern u1="W" u2="&#xf6;" k="41" />
<hkern u1="W" u2="&#xe4;" k="41" />
<hkern u1="W" u2="&#xd6;" k="20" />
<hkern u1="W" u2="&#xc4;" k="82" />
<hkern u1="W" u2="u" k="20" />
<hkern u1="W" u2="s" k="20" />
<hkern u1="W" u2="r" k="20" />
<hkern u1="W" u2="q" k="41" />
<hkern u1="W" u2="p" k="20" />
<hkern u1="W" u2="o" k="41" />
<hkern u1="W" u2="n" k="20" />
<hkern u1="W" u2="m" k="20" />
<hkern u1="W" u2="g" k="20" />
<hkern u1="W" u2="e" k="41" />
<hkern u1="W" u2="d" k="41" />
<hkern u1="W" u2="c" k="41" />
<hkern u1="W" u2="a" k="41" />
<hkern u1="W" u2="Q" k="20" />
<hkern u1="W" u2="O" k="20" />
<hkern u1="W" u2="G" k="20" />
<hkern u1="W" u2="C" k="20" />
<hkern u1="W" u2="A" k="82" />
<hkern u1="W" u2="&#x3f;" k="-41" />
<hkern u1="W" u2="&#x2e;" k="102" />
<hkern u1="W" u2="&#x2c;" k="102" />
<hkern u1="X" u2="&#xd6;" k="41" />
<hkern u1="X" u2="Q" k="41" />
<hkern u1="X" u2="O" k="41" />
<hkern u1="X" u2="G" k="41" />
<hkern u1="X" u2="C" k="41" />
<hkern u1="Y" u2="&#x201e;" k="123" />
<hkern u1="Y" u2="&#x201a;" k="123" />
<hkern u1="Y" u2="&#xfc;" k="61" />
<hkern u1="Y" u2="&#xf6;" k="102" />
<hkern u1="Y" u2="&#xe4;" k="102" />
<hkern u1="Y" u2="&#xd6;" k="41" />
<hkern u1="Y" u2="&#xc4;" k="123" />
<hkern u1="Y" u2="z" k="41" />
<hkern u1="Y" u2="u" k="61" />
<hkern u1="Y" u2="s" k="82" />
<hkern u1="Y" u2="r" k="61" />
<hkern u1="Y" u2="q" k="102" />
<hkern u1="Y" u2="p" k="61" />
<hkern u1="Y" u2="o" k="102" />
<hkern u1="Y" u2="n" k="61" />
<hkern u1="Y" u2="m" k="61" />
<hkern u1="Y" u2="g" k="41" />
<hkern u1="Y" u2="e" k="102" />
<hkern u1="Y" u2="d" k="102" />
<hkern u1="Y" u2="c" k="102" />
<hkern u1="Y" u2="a" k="102" />
<hkern u1="Y" u2="Q" k="41" />
<hkern u1="Y" u2="O" k="41" />
<hkern u1="Y" u2="G" k="41" />
<hkern u1="Y" u2="C" k="41" />
<hkern u1="Y" u2="A" k="123" />
<hkern u1="Y" u2="&#x3f;" k="-41" />
<hkern u1="Y" u2="&#x2e;" k="123" />
<hkern u1="Y" u2="&#x2c;" k="123" />
<hkern u1="Z" u2="&#xd6;" k="20" />
<hkern u1="Z" u2="Q" k="20" />
<hkern u1="Z" u2="O" k="20" />
<hkern u1="Z" u2="G" k="20" />
<hkern u1="Z" u2="C" k="20" />
<hkern u1="[" u2="J" k="-184" />
<hkern u1="a" u2="&#x201d;" k="20" />
<hkern u1="a" u2="&#x2019;" k="20" />
<hkern u1="a" u2="&#x27;" k="20" />
<hkern u1="a" u2="&#x22;" k="20" />
<hkern u1="b" u2="&#x201d;" k="20" />
<hkern u1="b" u2="&#x2019;" k="20" />
<hkern u1="b" u2="z" k="20" />
<hkern u1="b" u2="y" k="41" />
<hkern u1="b" u2="x" k="41" />
<hkern u1="b" u2="w" k="41" />
<hkern u1="b" u2="v" k="41" />
<hkern u1="b" u2="&#x27;" k="20" />
<hkern u1="b" u2="&#x22;" k="20" />
<hkern u1="c" u2="&#x201d;" k="-41" />
<hkern u1="c" u2="&#x2019;" k="-41" />
<hkern u1="c" u2="&#x27;" k="-41" />
<hkern u1="c" u2="&#x22;" k="-41" />
<hkern u1="e" u2="&#x201d;" k="20" />
<hkern u1="e" u2="&#x2019;" k="20" />
<hkern u1="e" u2="z" k="20" />
<hkern u1="e" u2="y" k="41" />
<hkern u1="e" u2="x" k="41" />
<hkern u1="e" u2="w" k="41" />
<hkern u1="e" u2="v" k="41" />
<hkern u1="e" u2="&#x27;" k="20" />
<hkern u1="e" u2="&#x22;" k="20" />
<hkern u1="f" u2="&#x201d;" k="-123" />
<hkern u1="f" u2="&#x2019;" k="-123" />
<hkern u1="f" u2="&#x27;" k="-123" />
<hkern u1="f" u2="&#x22;" k="-123" />
<hkern u1="h" u2="&#x201d;" k="20" />
<hkern u1="h" u2="&#x2019;" k="20" />
<hkern u1="h" u2="&#x27;" k="20" />
<hkern u1="h" u2="&#x22;" k="20" />
<hkern u1="k" u2="&#xf6;" k="41" />
<hkern u1="k" u2="q" k="41" />
<hkern u1="k" u2="o" k="41" />
<hkern u1="k" u2="e" k="41" />
<hkern u1="k" u2="d" k="41" />
<hkern u1="k" u2="c" k="41" />
<hkern u1="m" u2="&#x201d;" k="20" />
<hkern u1="m" u2="&#x2019;" k="20" />
<hkern u1="m" u2="&#x27;" k="20" />
<hkern u1="m" u2="&#x22;" k="20" />
<hkern u1="n" u2="&#x201d;" k="20" />
<hkern u1="n" u2="&#x2019;" k="20" />
<hkern u1="n" u2="&#x27;" k="20" />
<hkern u1="n" u2="&#x22;" k="20" />
<hkern u1="o" u2="&#x201d;" k="20" />
<hkern u1="o" u2="&#x2019;" k="20" />
<hkern u1="o" u2="z" k="20" />
<hkern u1="o" u2="y" k="41" />
<hkern u1="o" u2="x" k="41" />
<hkern u1="o" u2="w" k="41" />
<hkern u1="o" u2="v" k="41" />
<hkern u1="o" u2="&#x27;" k="20" />
<hkern u1="o" u2="&#x22;" k="20" />
<hkern u1="p" u2="&#x201d;" k="20" />
<hkern u1="p" u2="&#x2019;" k="20" />
<hkern u1="p" u2="z" k="20" />
<hkern u1="p" u2="y" k="41" />
<hkern u1="p" u2="x" k="41" />
<hkern u1="p" u2="w" k="41" />
<hkern u1="p" u2="v" k="41" />
<hkern u1="p" u2="&#x27;" k="20" />
<hkern u1="p" u2="&#x22;" k="20" />
<hkern u1="r" u2="&#x201d;" k="-82" />
<hkern u1="r" u2="&#x2019;" k="-82" />
<hkern u1="r" u2="&#xf6;" k="41" />
<hkern u1="r" u2="&#xe4;" k="41" />
<hkern u1="r" u2="q" k="41" />
<hkern u1="r" u2="o" k="41" />
<hkern u1="r" u2="g" k="20" />
<hkern u1="r" u2="e" k="41" />
<hkern u1="r" u2="d" k="41" />
<hkern u1="r" u2="c" k="41" />
<hkern u1="r" u2="a" k="41" />
<hkern u1="r" u2="&#x27;" k="-82" />
<hkern u1="r" u2="&#x22;" k="-82" />
<hkern u1="t" u2="&#x201d;" k="-41" />
<hkern u1="t" u2="&#x2019;" k="-41" />
<hkern u1="t" u2="&#x27;" k="-41" />
<hkern u1="t" u2="&#x22;" k="-41" />
<hkern u1="v" u2="&#x201e;" k="82" />
<hkern u1="v" u2="&#x201d;" k="-82" />
<hkern u1="v" u2="&#x201a;" k="82" />
<hkern u1="v" u2="&#x2019;" k="-82" />
<hkern u1="v" u2="&#x3f;" k="-41" />
<hkern u1="v" u2="&#x2e;" k="82" />
<hkern u1="v" u2="&#x2c;" k="82" />
<hkern u1="v" u2="&#x27;" k="-82" />
<hkern u1="v" u2="&#x22;" k="-82" />
<hkern u1="w" u2="&#x201e;" k="82" />
<hkern u1="w" u2="&#x201d;" k="-82" />
<hkern u1="w" u2="&#x201a;" k="82" />
<hkern u1="w" u2="&#x2019;" k="-82" />
<hkern u1="w" u2="&#x3f;" k="-41" />
<hkern u1="w" u2="&#x2e;" k="82" />
<hkern u1="w" u2="&#x2c;" k="82" />
<hkern u1="w" u2="&#x27;" k="-82" />
<hkern u1="w" u2="&#x22;" k="-82" />
<hkern u1="x" u2="&#xf6;" k="41" />
<hkern u1="x" u2="q" k="41" />
<hkern u1="x" u2="o" k="41" />
<hkern u1="x" u2="e" k="41" />
<hkern u1="x" u2="d" k="41" />
<hkern u1="x" u2="c" k="41" />
<hkern u1="y" u2="&#x201e;" k="82" />
<hkern u1="y" u2="&#x201d;" k="-82" />
<hkern u1="y" u2="&#x201a;" k="82" />
<hkern u1="y" u2="&#x2019;" k="-82" />
<hkern u1="y" u2="&#x3f;" k="-41" />
<hkern u1="y" u2="&#x2e;" k="82" />
<hkern u1="y" u2="&#x2c;" k="82" />
<hkern u1="y" u2="&#x27;" k="-82" />
<hkern u1="y" u2="&#x22;" k="-82" />
<hkern u1="&#x7b;" u2="J" k="-184" />
<hkern u1="&#xc4;" u2="&#x201d;" k="143" />
<hkern u1="&#xc4;" u2="&#x2019;" k="143" />
<hkern u1="&#xc4;" u2="&#xd6;" k="41" />
<hkern u1="&#xc4;" u2="Y" k="123" />
<hkern u1="&#xc4;" u2="W" k="82" />
<hkern u1="&#xc4;" u2="V" k="82" />
<hkern u1="&#xc4;" u2="T" k="143" />
<hkern u1="&#xc4;" u2="Q" k="41" />
<hkern u1="&#xc4;" u2="O" k="41" />
<hkern u1="&#xc4;" u2="J" k="-266" />
<hkern u1="&#xc4;" u2="G" k="41" />
<hkern u1="&#xc4;" u2="C" k="41" />
<hkern u1="&#xc4;" u2="&#x27;" k="143" />
<hkern u1="&#xc4;" u2="&#x22;" k="143" />
<hkern u1="&#xd6;" u2="&#x201e;" k="82" />
<hkern u1="&#xd6;" u2="&#x201a;" k="82" />
<hkern u1="&#xd6;" u2="&#xc4;" k="41" />
<hkern u1="&#xd6;" u2="Z" k="20" />
<hkern u1="&#xd6;" u2="Y" k="20" />
<hkern u1="&#xd6;" u2="X" k="41" />
<hkern u1="&#xd6;" u2="W" k="20" />
<hkern u1="&#xd6;" u2="V" k="20" />
<hkern u1="&#xd6;" u2="T" k="61" />
<hkern u1="&#xd6;" u2="A" k="41" />
<hkern u1="&#xd6;" u2="&#x2e;" k="82" />
<hkern u1="&#xd6;" u2="&#x2c;" k="82" />
<hkern u1="&#xdc;" u2="&#x201e;" k="41" />
<hkern u1="&#xdc;" u2="&#x201a;" k="41" />
<hkern u1="&#xdc;" u2="&#xc4;" k="20" />
<hkern u1="&#xdc;" u2="A" k="20" />
<hkern u1="&#xdc;" u2="&#x2e;" k="41" />
<hkern u1="&#xdc;" u2="&#x2c;" k="41" />
<hkern u1="&#xe4;" u2="&#x201d;" k="20" />
<hkern u1="&#xe4;" u2="&#x2019;" k="20" />
<hkern u1="&#xe4;" u2="&#x27;" k="20" />
<hkern u1="&#xe4;" u2="&#x22;" k="20" />
<hkern u1="&#xf6;" u2="&#x201d;" k="41" />
<hkern u1="&#xf6;" u2="&#x2019;" k="41" />
<hkern u1="&#xf6;" u2="&#x27;" k="41" />
<hkern u1="&#xf6;" u2="&#x22;" k="41" />
<hkern u1="&#x2013;" u2="T" k="82" />
<hkern u1="&#x2014;" u2="T" k="82" />
<hkern u1="&#x2018;" u2="&#xfc;" k="61" />
<hkern u1="&#x2018;" u2="&#xf6;" k="123" />
<hkern u1="&#x2018;" u2="&#xe4;" k="82" />
<hkern u1="&#x2018;" u2="&#xc4;" k="143" />
<hkern u1="&#x2018;" u2="u" k="61" />
<hkern u1="&#x2018;" u2="s" k="61" />
<hkern u1="&#x2018;" u2="r" k="61" />
<hkern u1="&#x2018;" u2="q" k="123" />
<hkern u1="&#x2018;" u2="p" k="61" />
<hkern u1="&#x2018;" u2="o" k="123" />
<hkern u1="&#x2018;" u2="n" k="61" />
<hkern u1="&#x2018;" u2="m" k="61" />
<hkern u1="&#x2018;" u2="g" k="61" />
<hkern u1="&#x2018;" u2="e" k="123" />
<hkern u1="&#x2018;" u2="d" k="123" />
<hkern u1="&#x2018;" u2="c" k="123" />
<hkern u1="&#x2018;" u2="a" k="82" />
<hkern u1="&#x2018;" u2="Y" k="-20" />
<hkern u1="&#x2018;" u2="W" k="-41" />
<hkern u1="&#x2018;" u2="V" k="-41" />
<hkern u1="&#x2018;" u2="T" k="-41" />
<hkern u1="&#x2018;" u2="A" k="143" />
<hkern u1="&#x2019;" u2="&#xfc;" k="61" />
<hkern u1="&#x2019;" u2="&#xf6;" k="123" />
<hkern u1="&#x2019;" u2="&#xe4;" k="82" />
<hkern u1="&#x2019;" u2="&#xc4;" k="143" />
<hkern u1="&#x2019;" u2="u" k="61" />
<hkern u1="&#x2019;" u2="s" k="61" />
<hkern u1="&#x2019;" u2="r" k="61" />
<hkern u1="&#x2019;" u2="q" k="123" />
<hkern u1="&#x2019;" u2="p" k="61" />
<hkern u1="&#x2019;" u2="o" k="123" />
<hkern u1="&#x2019;" u2="n" k="61" />
<hkern u1="&#x2019;" u2="m" k="61" />
<hkern u1="&#x2019;" u2="g" k="61" />
<hkern u1="&#x2019;" u2="e" k="123" />
<hkern u1="&#x2019;" u2="d" k="123" />
<hkern u1="&#x2019;" u2="c" k="123" />
<hkern u1="&#x2019;" u2="a" k="82" />
<hkern u1="&#x2019;" u2="Y" k="-20" />
<hkern u1="&#x2019;" u2="W" k="-41" />
<hkern u1="&#x2019;" u2="V" k="-41" />
<hkern u1="&#x2019;" u2="T" k="-41" />
<hkern u1="&#x2019;" u2="A" k="143" />
<hkern u1="&#x201a;" u2="&#xdc;" k="41" />
<hkern u1="&#x201a;" u2="&#xd6;" k="102" />
<hkern u1="&#x201a;" u2="Y" k="123" />
<hkern u1="&#x201a;" u2="W" k="123" />
<hkern u1="&#x201a;" u2="V" k="123" />
<hkern u1="&#x201a;" u2="U" k="41" />
<hkern u1="&#x201a;" u2="T" k="143" />
<hkern u1="&#x201a;" u2="Q" k="102" />
<hkern u1="&#x201a;" u2="O" k="102" />
<hkern u1="&#x201a;" u2="G" k="102" />
<hkern u1="&#x201a;" u2="C" k="102" />
<hkern u1="&#x201c;" u2="&#xfc;" k="61" />
<hkern u1="&#x201c;" u2="&#xf6;" k="123" />
<hkern u1="&#x201c;" u2="&#xe4;" k="82" />
<hkern u1="&#x201c;" u2="&#xc4;" k="143" />
<hkern u1="&#x201c;" u2="u" k="61" />
<hkern u1="&#x201c;" u2="s" k="61" />
<hkern u1="&#x201c;" u2="r" k="61" />
<hkern u1="&#x201c;" u2="q" k="123" />
<hkern u1="&#x201c;" u2="p" k="61" />
<hkern u1="&#x201c;" u2="o" k="123" />
<hkern u1="&#x201c;" u2="n" k="61" />
<hkern u1="&#x201c;" u2="m" k="61" />
<hkern u1="&#x201c;" u2="g" k="61" />
<hkern u1="&#x201c;" u2="e" k="123" />
<hkern u1="&#x201c;" u2="d" k="123" />
<hkern u1="&#x201c;" u2="c" k="123" />
<hkern u1="&#x201c;" u2="a" k="82" />
<hkern u1="&#x201c;" u2="Y" k="-20" />
<hkern u1="&#x201c;" u2="W" k="-41" />
<hkern u1="&#x201c;" u2="V" k="-41" />
<hkern u1="&#x201c;" u2="T" k="-41" />
<hkern u1="&#x201c;" u2="A" k="143" />
<hkern u1="&#x201e;" u2="&#xdc;" k="41" />
<hkern u1="&#x201e;" u2="&#xd6;" k="102" />
<hkern u1="&#x201e;" u2="Y" k="123" />
<hkern u1="&#x201e;" u2="W" k="123" />
<hkern u1="&#x201e;" u2="V" k="123" />
<hkern u1="&#x201e;" u2="U" k="41" />
<hkern u1="&#x201e;" u2="T" k="143" />
<hkern u1="&#x201e;" u2="Q" k="102" />
<hkern u1="&#x201e;" u2="O" k="102" />
<hkern u1="&#x201e;" u2="G" k="102" />
<hkern u1="&#x201e;" u2="C" k="102" />
</font>
</defs></svg> 